{"self":"http://jira.iscs.com.cn/rest/api/2/group/member?includeInactiveUsers=false&maxResults=50&groupname=confluence-users&startAt=0","nextPage":"http://jira.iscs.com.cn/rest/api/2/group/member?includeInactiveUsers=false&maxResults=50&groupname=confluence-users&startAt=50","maxResults":50,"startAt":0,"total":136,"isLast":false,"values":[{"self":"http://jira.iscs.com.cn/rest/api/2/user?username=admin","name":"admin","key":"admin","emailAddress":"admin@iscs.com.cn","avatarUrls":{"48x48":"http://jira.iscs.com.cn/secure/useravatar?ownerId=admin&avatarId=10600","24x24":"http://jira.iscs.com.cn/secure/useravatar?size=small&ownerId=admin&avatarId=10600","16x16":"http://jira.iscs.com.cn/secure/useravatar?size=xsmall&ownerId=admin&avatarId=10600","32x32":"http://jira.iscs.com.cn/secure/useravatar?size=medium&ownerId=admin&avatarId=10600"},"displayName":"admin","active":true,"timeZone":"PRC"},{"self":"http://jira.iscs.com.cn/rest/api/2/user?username=aiweiming","name":"aiweiming","key":"aiweiming","emailAddress":"aiweiming@iscs.com.cn","avatarUrls":{"48x48":"http://jira.iscs.com.cn/secure/useravatar?ownerId=aiweiming&avatarId=10908","24x24":"http://jira.iscs.com.cn/secure/useravatar?size=small&ownerId=aiweiming&avatarId=10908","16x16":"http://jira.iscs.com.cn/secure/useravatar?size=xsmall&ownerId=aiweiming&avatarId=10908","32x32":"http://jira.iscs.com.cn/secure/useravatar?size=medium&ownerId=aiweiming&avatarId=10908"},"displayName":"艾卫明","active":true,"timeZone":"PRC"},{"self":"http://jira.iscs.com.cn/rest/api/2/user?username=caichenyi","name":"caichenyi","key":"caichenyi","emailAddress":"caichenyi@iscs.com.cn","avatarUrls":{"48x48":"http://jira.iscs.com.cn/secure/useravatar?ownerId=caichenyi&avatarId=10909","24x24":"http://jira.iscs.com.cn/secure/useravatar?size=small&ownerId=caichenyi&avatarId=10909","16x16":"http://jira.iscs.com.cn/secure/useravatar?size=xsmall&ownerId=caichenyi&avatarId=10909","32x32":"http://jira.iscs.com.cn/secure/useravatar?size=medium&ownerId=caichenyi&avatarId=10909"},"displayName":"蔡晨益","active":true,"timeZone":"PRC"},{"self":"http://jira.iscs.com.cn/rest/api/2/user?username=caiyuqing","name":"caiyuqing","key":"caiyuqing","emailAddress":"caiyuqing@iscs.com.cn","avatarUrls":{"48x48":"http://jira.iscs.com.cn/secure/useravatar?ownerId=caiyuqing&avatarId=10603","24x24":"http://jira.iscs.com.cn/secure/useravatar?size=small&ownerId=caiyuqing&avatarId=10603","16x16":"http://jira.iscs.com.cn/secure/useravatar?size=xsmall&ownerId=caiyuqing&avatarId=10603","32x32":"http://jira.iscs.com.cn/secure/useravatar?size=medium&ownerId=caiyuqing&avatarId=10603"},"displayName":"蔡宇青","active":true,"timeZone":"PRC"},{"self":"http://jira.iscs.com.cn/rest/api/2/user?username=caofei","name":"caofei","key":"caofei","emailAddress":"caofei@iscs.com.cn","avatarUrls":{"48x48":"http://jira.iscs.com.cn/secure/useravatar?avatarId=10122","24x24":"http://jira.iscs.com.cn/secure/useravatar?size=small&avatarId=10122","16x16":"http://jira.iscs.com.cn/secure/useravatar?size=xsmall&avatarId=10122","32x32":"http://jira.iscs.com.cn/secure/useravatar?size=medium&avatarId=10122"},"displayName":"曹斐","active":true,"timeZone":"PRC"},{"self":"http://jira.iscs.com.cn/rest/api/2/user?username=caoyong","name":"caoyong","key":"caoyong","emailAddress":"caoyong@iscs.com.cn","avatarUrls":{"48x48":"http://jira.iscs.com.cn/secure/useravatar?ownerId=caoyong&avatarId=11410","24x24":"http://jira.iscs.com.cn/secure/useravatar?size=small&ownerId=caoyong&avatarId=11410","16x16":"http://jira.iscs.com.cn/secure/useravatar?size=xsmall&ownerId=caoyong&avatarId=11410","32x32":"http://jira.iscs.com.cn/secure/useravatar?size=medium&ownerId=caoyong&avatarId=11410"},"displayName":"曹永","active":true,"timeZone":"PRC"},{"self":"http://jira.iscs.com.cn/rest/api/2/user?username=chenbing","name":"chenbing","key":"chenbing","emailAddress":"chenbing@iscs.com.cn","avatarUrls":{"48x48":"http://jira.iscs.com.cn/secure/useravatar?ownerId=chenbing&avatarId=10911","24x24":"http://jira.iscs.com.cn/secure/useravatar?size=small&ownerId=chenbing&avatarId=10911","16x16":"http://jira.iscs.com.cn/secure/useravatar?size=xsmall&ownerId=chenbing&avatarId=10911","32x32":"http://jira.iscs.com.cn/secure/useravatar?size=medium&ownerId=chenbing&avatarId=10911"},"displayName":"陈兵","active":true,"timeZone":"PRC"},{"self":"http://jira.iscs.com.cn/rest/api/2/user?username=chenchao","name":"chenchao","key":"chenchao","emailAddress":"","avatarUrls":{"48x48":"http://jira.iscs.com.cn/secure/useravatar?avatarId=10122","24x24":"http://jira.iscs.com.cn/secure/useravatar?size=small&avatarId=10122","16x16":"http://jira.iscs.com.cn/secure/useravatar?size=xsmall&avatarId=10122","32x32":"http://jira.iscs.com.cn/secure/useravatar?size=medium&avatarId=10122"},"displayName":"陈超","active":true,"timeZone":"PRC"},{"self":"http://jira.iscs.com.cn/rest/api/2/user?username=chengwei","name":"chengwei","key":"chengwei","emailAddress":"chengwei@iscs.com.cn","avatarUrls":{"48x48":"http://jira.iscs.com.cn/secure/useravatar?ownerId=chengwei&avatarId=10918","24x24":"http://jira.iscs.com.cn/secure/useravatar?size=small&ownerId=chengwei&avatarId=10918","16x16":"http://jira.iscs.com.cn/secure/useravatar?size=xsmall&ownerId=chengwei&avatarId=10918","32x32":"http://jira.iscs.com.cn/secure/useravatar?size=medium&ownerId=chengwei&avatarId=10918"},"displayName":"程伟","active":true,"timeZone":"PRC"},{"self":"http://jira.iscs.com.cn/rest/api/2/user?username=chengxuejun","name":"chengxuejun","key":"chengxuejun","emailAddress":"chengxuejun","avatarUrls":{"48x48":"http://jira.iscs.com.cn/secure/useravatar?ownerId=chengxuejun&avatarId=10984","24x24":"http://jira.iscs.com.cn/secure/useravatar?size=small&ownerId=chengxuejun&avatarId=10984","16x16":"http://jira.iscs.com.cn/secure/useravatar?size=xsmall&ownerId=chengxuejun&avatarId=10984","32x32":"http://jira.iscs.com.cn/secure/useravatar?size=medium&ownerId=chengxuejun&avatarId=10984"},"displayName":"程雪军","active":true,"timeZone":"PRC"},{"self":"http://jira.iscs.com.cn/rest/api/2/user?username=chengxy","name":"chengxy","key":"chengxy","emailAddress":"chengxy@iscs.com.cn","avatarUrls":{"48x48":"http://jira.iscs.com.cn/secure/useravatar?ownerId=chengxy&avatarId=10986","24x24":"http://jira.iscs.com.cn/secure/useravatar?size=small&ownerId=chengxy&avatarId=10986","16x16":"http://jira.iscs.com.cn/secure/useravatar?size=xsmall&ownerId=chengxy&avatarId=10986","32x32":"http://jira.iscs.com.cn/secure/useravatar?size=medium&ownerId=chengxy&avatarId=10986"},"displayName":"程霄宇","active":true,"timeZone":"PRC"},{"self":"http://jira.iscs.com.cn/rest/api/2/user?username=chengyuanchun","name":"chengyuanchun","key":"chengyuanchun","emailAddress":"chengyuanchun@iscs.com.cn","avatarUrls":{"48x48":"http://jira.iscs.com.cn/secure/useravatar?avatarId=10122","24x24":"http://jira.iscs.com.cn/secure/useravatar?size=small&avatarId=10122","16x16":"http://jira.iscs.com.cn/secure/useravatar?size=xsmall&avatarId=10122","32x32":"http://jira.iscs.com.cn/secure/useravatar?size=medium&avatarId=10122"},"displayName":"程元春","active":true,"timeZone":"PRC"},{"self":"http://jira.iscs.com.cn/rest/api/2/user?username=chenshengnan","name":"chenshengnan","key":"chenshengnan","emailAddress":"chenshengnan@iscs.com.cn","avatarUrls":{"48x48":"http://jira.iscs.com.cn/secure/useravatar?avatarId=10342","24x24":"http://jira.iscs.com.cn/secure/useravatar?size=small&avatarId=10342","16x16":"http://jira.iscs.com.cn/secure/useravatar?size=xsmall&avatarId=10342","32x32":"http://jira.iscs.com.cn/secure/useravatar?size=medium&avatarId=10342"},"displayName":"陈胜难","active":true,"timeZone":"PRC"},{"self":"http://jira.iscs.com.cn/rest/api/2/user?username=chentao2","name":"chentao2","key":"chentao2","emailAddress":"chentao@iscs.com.cn","avatarUrls":{"48x48":"http://jira.iscs.com.cn/secure/useravatar?avatarId=10122","24x24":"http://jira.iscs.com.cn/secure/useravatar?size=small&avatarId=10122","16x16":"http://jira.iscs.com.cn/secure/useravatar?size=xsmall&avatarId=10122","32x32":"http://jira.iscs.com.cn/secure/useravatar?size=medium&avatarId=10122"},"displayName":"陈涛","active":true,"timeZone":"PRC"},{"self":"http://jira.iscs.com.cn/rest/api/2/user?username=chenxia","name":"chenxia","key":"chenxia","emailAddress":"chenxia@iscs.com.cn","avatarUrls":{"48x48":"http://jira.iscs.com.cn/secure/useravatar?ownerId=chenxia&avatarId=10913","24x24":"http://jira.iscs.com.cn/secure/useravatar?size=small&ownerId=chenxia&avatarId=10913","16x16":"http://jira.iscs.com.cn/secure/useravatar?size=xsmall&ownerId=chenxia&avatarId=10913","32x32":"http://jira.iscs.com.cn/secure/useravatar?size=medium&ownerId=chenxia&avatarId=10913"},"displayName":"陈霞","active":true,"timeZone":"PRC"},{"self":"http://jira.iscs.com.cn/rest/api/2/user?username=chenxiangju","name":"chenxiangju","key":"chenxiangju","emailAddress":"chenxiangju@iscs.com.cn","avatarUrls":{"48x48":"http://jira.iscs.com.cn/secure/useravatar?ownerId=chenxiangju&avatarId=10972","24x24":"http://jira.iscs.com.cn/secure/useravatar?size=small&ownerId=chenxiangju&avatarId=10972","16x16":"http://jira.iscs.com.cn/secure/useravatar?size=xsmall&ownerId=chenxiangju&avatarId=10972","32x32":"http://jira.iscs.com.cn/secure/useravatar?size=medium&ownerId=chenxiangju&avatarId=10972"},"displayName":"陈向聚","active":true,"timeZone":"PRC"},{"self":"http://jira.iscs.com.cn/rest/api/2/user?username=chenxubin","name":"chenxubin","key":"chenxubin","emailAddress":"chenxubin@iscs.com.cn","avatarUrls":{"48x48":"http://jira.iscs.com.cn/secure/useravatar?ownerId=chenxubin&avatarId=11001","24x24":"http://jira.iscs.com.cn/secure/useravatar?size=small&ownerId=chenxubin&avatarId=11001","16x16":"http://jira.iscs.com.cn/secure/useravatar?size=xsmall&ownerId=chenxubin&avatarId=11001","32x32":"http://jira.iscs.com.cn/secure/useravatar?size=medium&ownerId=chenxubin&avatarId=11001"},"displayName":"陈旭彬","active":true,"timeZone":"PRC"},{"self":"http://jira.iscs.com.cn/rest/api/2/user?username=chenyanxiu","name":"chenyanxiu","key":"chenyanxiu","emailAddress":"chenyanxiu@iscs.com.cn","avatarUrls":{"48x48":"http://jira.iscs.com.cn/secure/useravatar?ownerId=chenyanxiu&avatarId=11208","24x24":"http://jira.iscs.com.cn/secure/useravatar?size=small&ownerId=chenyanxiu&avatarId=11208","16x16":"http://jira.iscs.com.cn/secure/useravatar?size=xsmall&ownerId=chenyanxiu&avatarId=11208","32x32":"http://jira.iscs.com.cn/secure/useravatar?size=medium&ownerId=chenyanxiu&avatarId=11208"},"displayName":"陈妍秀","active":true,"timeZone":"PRC"},{"self":"http://jira.iscs.com.cn/rest/api/2/user?username=chenyongxing","name":"chenyongxing","key":"chenyongxing","emailAddress":"chenyongxing@iscs.com.cn","avatarUrls":{"48x48":"http://jira.iscs.com.cn/secure/useravatar?ownerId=chenyongxing&avatarId=10916","24x24":"http://jira.iscs.com.cn/secure/useravatar?size=small&ownerId=chenyongxing&avatarId=10916","16x16":"http://jira.iscs.com.cn/secure/useravatar?size=xsmall&ownerId=chenyongxing&avatarId=10916","32x32":"http://jira.iscs.com.cn/secure/useravatar?size=medium&ownerId=chenyongxing&avatarId=10916"},"displayName":"陈永兴","active":true,"timeZone":"PRC"},{"self":"http://jira.iscs.com.cn/rest/api/2/user?username=chenzhu","name":"chenzhu","key":"chenzhu","emailAddress":"chenzhu@iscs.com.cn","avatarUrls":{"48x48":"http://jira.iscs.com.cn/secure/useravatar?avatarId=10350","24x24":"http://jira.iscs.com.cn/secure/useravatar?size=small&avatarId=10350","16x16":"http://jira.iscs.com.cn/secure/useravatar?size=xsmall&avatarId=10350","32x32":"http://jira.iscs.com.cn/secure/useravatar?size=medium&avatarId=10350"},"displayName":"陈竹","active":true,"timeZone":"PRC"},{"self":"http://jira.iscs.com.cn/rest/api/2/user?username=chudanfeng","name":"chudanfeng","key":"zhudanfeng","emailAddress":"chudanfeng@iscs.com.cn","avatarUrls":{"48x48":"http://jira.iscs.com.cn/secure/useravatar?avatarId=10337","24x24":"http://jira.iscs.com.cn/secure/useravatar?size=small&avatarId=10337","16x16":"http://jira.iscs.com.cn/secure/useravatar?size=xsmall&avatarId=10337","32x32":"http://jira.iscs.com.cn/secure/useravatar?size=medium&avatarId=10337"},"displayName":"褚丹凤","active":true,"timeZone":"PRC"},{"self":"http://jira.iscs.com.cn/rest/api/2/user?username=dengchao","name":"dengchao","key":"dengchao","emailAddress":"dengchao@iscs.com.cn","avatarUrls":{"48x48":"http://jira.iscs.com.cn/secure/useravatar?avatarId=10122","24x24":"http://jira.iscs.com.cn/secure/useravatar?size=small&avatarId=10122","16x16":"http://jira.iscs.com.cn/secure/useravatar?size=xsmall&avatarId=10122","32x32":"http://jira.iscs.com.cn/secure/useravatar?size=medium&avatarId=10122"},"displayName":"邓超","active":true,"timeZone":"PRC"},{"self":"http://jira.iscs.com.cn/rest/api/2/user?username=dengzhijun","name":"dengzhijun","key":"dengzhijun","emailAddress":"dengzhijun@iscs.com.cn","avatarUrls":{"48x48":"http://jira.iscs.com.cn/secure/useravatar?ownerId=dengzhijun&avatarId=11003","24x24":"http://jira.iscs.com.cn/secure/useravatar?size=small&ownerId=dengzhijun&avatarId=11003","16x16":"http://jira.iscs.com.cn/secure/useravatar?size=xsmall&ownerId=dengzhijun&avatarId=11003","32x32":"http://jira.iscs.com.cn/secure/useravatar?size=medium&ownerId=dengzhijun&avatarId=11003"},"displayName":"邓志君","active":true,"timeZone":"PRC"},{"self":"http://jira.iscs.com.cn/rest/api/2/user?username=dongjie","name":"dongjie","key":"dongjie","emailAddress":"dongjie@iscs.com.cn","avatarUrls":{"48x48":"http://jira.iscs.com.cn/secure/useravatar?avatarId=10122","24x24":"http://jira.iscs.com.cn/secure/useravatar?size=small&avatarId=10122","16x16":"http://jira.iscs.com.cn/secure/useravatar?size=xsmall&avatarId=10122","32x32":"http://jira.iscs.com.cn/secure/useravatar?size=medium&avatarId=10122"},"displayName":"董杰","active":true,"timeZone":"PRC"},{"self":"http://jira.iscs.com.cn/rest/api/2/user?username=dongzhenzhen","name":"dongzhenzhen","key":"dongzhenzhen","emailAddress":"dongzhenzhen@iscs.com.cn","avatarUrls":{"48x48":"http://jira.iscs.com.cn/secure/useravatar?avatarId=10122","24x24":"http://jira.iscs.com.cn/secure/useravatar?size=small&avatarId=10122","16x16":"http://jira.iscs.com.cn/secure/useravatar?size=xsmall&avatarId=10122","32x32":"http://jira.iscs.com.cn/secure/useravatar?size=medium&avatarId=10122"},"displayName":"董真真","active":true,"timeZone":"PRC"},{"self":"http://jira.iscs.com.cn/rest/api/2/user?username=fenghui","name":"fenghui","key":"fenghui","emailAddress":"fenghui@iscs.com.cn","avatarUrls":{"48x48":"http://jira.iscs.com.cn/secure/useravatar?ownerId=fenghui&avatarId=10920","24x24":"http://jira.iscs.com.cn/secure/useravatar?size=small&ownerId=fenghui&avatarId=10920","16x16":"http://jira.iscs.com.cn/secure/useravatar?size=xsmall&ownerId=fenghui&avatarId=10920","32x32":"http://jira.iscs.com.cn/secure/useravatar?size=medium&ownerId=fenghui&avatarId=10920"},"displayName":"冯辉","active":true,"timeZone":"PRC"},{"self":"http://jira.iscs.com.cn/rest/api/2/user?username=fengyanting","name":"fengyanting","key":"fengyanting","emailAddress":"fengyanting@iscs.com.cn","avatarUrls":{"48x48":"http://jira.iscs.com.cn/secure/useravatar?ownerId=fengyanting&avatarId=11604","24x24":"http://jira.iscs.com.cn/secure/useravatar?size=small&ownerId=fengyanting&avatarId=11604","16x16":"http://jira.iscs.com.cn/secure/useravatar?size=xsmall&ownerId=fengyanting&avatarId=11604","32x32":"http://jira.iscs.com.cn/secure/useravatar?size=medium&ownerId=fengyanting&avatarId=11604"},"displayName":"冯彦婷","active":true,"timeZone":"PRC"},{"self":"http://jira.iscs.com.cn/rest/api/2/user?username=fuchong","name":"fuchong","key":"fuchong","emailAddress":"fuchong@iscs.com.cn","avatarUrls":{"48x48":"http://jira.iscs.com.cn/secure/useravatar?ownerId=fuchong&avatarId=11500","24x24":"http://jira.iscs.com.cn/secure/useravatar?size=small&ownerId=fuchong&avatarId=11500","16x16":"http://jira.iscs.com.cn/secure/useravatar?size=xsmall&ownerId=fuchong&avatarId=11500","32x32":"http://jira.iscs.com.cn/secure/useravatar?size=medium&ownerId=fuchong&avatarId=11500"},"displayName":"傅翀","active":true,"timeZone":"PRC"},{"self":"http://jira.iscs.com.cn/rest/api/2/user?username=futeng","name":"futeng","key":"futeng","emailAddress":"futeng@iscs.com.cn","avatarUrls":{"48x48":"http://jira.iscs.com.cn/secure/useravatar?ownerId=futeng&avatarId=10921","24x24":"http://jira.iscs.com.cn/secure/useravatar?size=small&ownerId=futeng&avatarId=10921","16x16":"http://jira.iscs.com.cn/secure/useravatar?size=xsmall&ownerId=futeng&avatarId=10921","32x32":"http://jira.iscs.com.cn/secure/useravatar?size=medium&ownerId=futeng&avatarId=10921"},"displayName":"傅腾","active":true,"timeZone":"PRC"},{"self":"http://jira.iscs.com.cn/rest/api/2/user?username=gehongyuan","name":"gehongyuan","key":"gehongyuan","emailAddress":"gehongyuan@iscs.com.cn","avatarUrls":{"48x48":"http://jira.iscs.com.cn/secure/useravatar?ownerId=gehongyuan&avatarId=10922","24x24":"http://jira.iscs.com.cn/secure/useravatar?size=small&ownerId=gehongyuan&avatarId=10922","16x16":"http://jira.iscs.com.cn/secure/useravatar?size=xsmall&ownerId=gehongyuan&avatarId=10922","32x32":"http://jira.iscs.com.cn/secure/useravatar?size=medium&ownerId=gehongyuan&avatarId=10922"},"displayName":"革红元","active":true,"timeZone":"PRC"},{"self":"http://jira.iscs.com.cn/rest/api/2/user?username=guanjianjun","name":"guanjianjun","key":"guanjianjun","emailAddress":"guanjianjun@iscs.com.cn","avatarUrls":{"48x48":"http://jira.iscs.com.cn/secure/useravatar?ownerId=guanjianjun&avatarId=10924","24x24":"http://jira.iscs.com.cn/secure/useravatar?size=small&ownerId=guanjianjun&avatarId=10924","16x16":"http://jira.iscs.com.cn/secure/useravatar?size=xsmall&ownerId=guanjianjun&avatarId=10924","32x32":"http://jira.iscs.com.cn/secure/useravatar?size=medium&ownerId=guanjianjun&avatarId=10924"},"displayName":"管剑军","active":true,"timeZone":"PRC"},{"self":"http://jira.iscs.com.cn/rest/api/2/user?username=guanmengting","name":"guanmengting","key":"guanmengting","emailAddress":"guanmengting@iscs.com.cn","avatarUrls":{"48x48":"http://jira.iscs.com.cn/secure/useravatar?ownerId=guanmengting&avatarId=10926","24x24":"http://jira.iscs.com.cn/secure/useravatar?size=small&ownerId=guanmengting&avatarId=10926","16x16":"http://jira.iscs.com.cn/secure/useravatar?size=xsmall&ownerId=guanmengting&avatarId=10926","32x32":"http://jira.iscs.com.cn/secure/useravatar?size=medium&ownerId=guanmengting&avatarId=10926"},"displayName":"管梦婷","active":true,"timeZone":"PRC"},{"self":"http://jira.iscs.com.cn/rest/api/2/user?username=hanbeibei","name":"hanbeibei","key":"hanbeibei","emailAddress":"hanbeibei@iscs.com.cn","avatarUrls":{"48x48":"http://jira.iscs.com.cn/secure/useravatar?ownerId=hanbeibei&avatarId=11605","24x24":"http://jira.iscs.com.cn/secure/useravatar?size=small&ownerId=hanbeibei&avatarId=11605","16x16":"http://jira.iscs.com.cn/secure/useravatar?size=xsmall&ownerId=hanbeibei&avatarId=11605","32x32":"http://jira.iscs.com.cn/secure/useravatar?size=medium&ownerId=hanbeibei&avatarId=11605"},"displayName":"韩贝贝","active":true,"timeZone":"PRC"},{"self":"http://jira.iscs.com.cn/rest/api/2/user?username=handan","name":"handan","key":"handan","emailAddress":"handan@iscs.com.cn","avatarUrls":{"48x48":"http://jira.iscs.com.cn/secure/useravatar?ownerId=handan&avatarId=10927","24x24":"http://jira.iscs.com.cn/secure/useravatar?size=small&ownerId=handan&avatarId=10927","16x16":"http://jira.iscs.com.cn/secure/useravatar?size=xsmall&ownerId=handan&avatarId=10927","32x32":"http://jira.iscs.com.cn/secure/useravatar?size=medium&ownerId=handan&avatarId=10927"},"displayName":"韩丹","active":true,"timeZone":"PRC"},{"self":"http://jira.iscs.com.cn/rest/api/2/user?username=hemeijia","name":"hemeijia","key":"hemeijia","emailAddress":"hemeijia@iscs.com.cn","avatarUrls":{"48x48":"http://jira.iscs.com.cn/secure/useravatar?avatarId=10122","24x24":"http://jira.iscs.com.cn/secure/useravatar?size=small&avatarId=10122","16x16":"http://jira.iscs.com.cn/secure/useravatar?size=xsmall&avatarId=10122","32x32":"http://jira.iscs.com.cn/secure/useravatar?size=medium&avatarId=10122"},"displayName":"何美佳","active":true,"timeZone":"PRC"},{"self":"http://jira.iscs.com.cn/rest/api/2/user?username=hexiaofei","name":"hexiaofei","key":"贺晓飞","emailAddress":"hexiaofei@iscs.com.cn","avatarUrls":{"48x48":"http://jira.iscs.com.cn/secure/useravatar?ownerId=%E8%B4%BA%E6%99%93%E9%A3%9E&avatarId=11800","24x24":"http://jira.iscs.com.cn/secure/useravatar?size=small&ownerId=%E8%B4%BA%E6%99%93%E9%A3%9E&avatarId=11800","16x16":"http://jira.iscs.com.cn/secure/useravatar?size=xsmall&ownerId=%E8%B4%BA%E6%99%93%E9%A3%9E&avatarId=11800","32x32":"http://jira.iscs.com.cn/secure/useravatar?size=medium&ownerId=%E8%B4%BA%E6%99%93%E9%A3%9E&avatarId=11800"},"displayName":"贺晓飞","active":true,"timeZone":"PRC"},{"self":"http://jira.iscs.com.cn/rest/api/2/user?username=houwenwu","name":"houwenwu","key":"houwenwu","emailAddress":"houwenwu@iscs.com.cn","avatarUrls":{"48x48":"http://jira.iscs.com.cn/secure/useravatar?avatarId=10122","24x24":"http://jira.iscs.com.cn/secure/useravatar?size=small&avatarId=10122","16x16":"http://jira.iscs.com.cn/secure/useravatar?size=xsmall&avatarId=10122","32x32":"http://jira.iscs.com.cn/secure/useravatar?size=medium&avatarId=10122"},"displayName":"侯文武","active":true,"timeZone":"PRC"},{"self":"http://jira.iscs.com.cn/rest/api/2/user?username=huangjiang","name":"huangjiang","key":"huangjiang","emailAddress":"huangjiang@iscs.com.cn","avatarUrls":{"48x48":"http://jira.iscs.com.cn/secure/useravatar?avatarId=10335","24x24":"http://jira.iscs.com.cn/secure/useravatar?size=small&avatarId=10335","16x16":"http://jira.iscs.com.cn/secure/useravatar?size=xsmall&avatarId=10335","32x32":"http://jira.iscs.com.cn/secure/useravatar?size=medium&avatarId=10335"},"displayName":"黄江","active":true,"timeZone":"PRC"},{"self":"http://jira.iscs.com.cn/rest/api/2/user?username=huangwenping","name":"huangwenping","key":"huangwenping","emailAddress":"huanwenping@iscs.com.cn","avatarUrls":{"48x48":"http://jira.iscs.com.cn/secure/useravatar?ownerId=huangwenping&avatarId=10929","24x24":"http://jira.iscs.com.cn/secure/useravatar?size=small&ownerId=huangwenping&avatarId=10929","16x16":"http://jira.iscs.com.cn/secure/useravatar?size=xsmall&ownerId=huangwenping&avatarId=10929","32x32":"http://jira.iscs.com.cn/secure/useravatar?size=medium&ownerId=huangwenping&avatarId=10929"},"displayName":"黄文平","active":true,"timeZone":"PRC"},{"self":"http://jira.iscs.com.cn/rest/api/2/user?username=huangxingxing","name":"huangxingxing","key":"huangxingxing","emailAddress":"huangxingxing@iscs.com.cn","avatarUrls":{"48x48":"http://jira.iscs.com.cn/secure/useravatar?avatarId=10122","24x24":"http://jira.iscs.com.cn/secure/useravatar?size=small&avatarId=10122","16x16":"http://jira.iscs.com.cn/secure/useravatar?size=xsmall&avatarId=10122","32x32":"http://jira.iscs.com.cn/secure/useravatar?size=medium&avatarId=10122"},"displayName":"黄星星","active":true,"timeZone":"PRC"},{"self":"http://jira.iscs.com.cn/rest/api/2/user?username=huangzhigang","name":"huangzhigang","key":"huangzhigang","emailAddress":"huanzhigang@iscs.com.cn","avatarUrls":{"48x48":"http://jira.iscs.com.cn/secure/useravatar?ownerId=huangzhigang&avatarId=10930","24x24":"http://jira.iscs.com.cn/secure/useravatar?size=small&ownerId=huangzhigang&avatarId=10930","16x16":"http://jira.iscs.com.cn/secure/useravatar?size=xsmall&ownerId=huangzhigang&avatarId=10930","32x32":"http://jira.iscs.com.cn/secure/useravatar?size=medium&ownerId=huangzhigang&avatarId=10930"},"displayName":"黄志钢","active":true,"timeZone":"PRC"},{"self":"http://jira.iscs.com.cn/rest/api/2/user?username=hulongyang","name":"hulongyang","key":"hulongyang","emailAddress":"hulongyang@iscs.com.cn","avatarUrls":{"48x48":"http://jira.iscs.com.cn/secure/useravatar?avatarId=10122","24x24":"http://jira.iscs.com.cn/secure/useravatar?size=small&avatarId=10122","16x16":"http://jira.iscs.com.cn/secure/useravatar?size=xsmall&avatarId=10122","32x32":"http://jira.iscs.com.cn/secure/useravatar?size=medium&avatarId=10122"},"displayName":"胡龙洋","active":true,"timeZone":"PRC"},{"self":"http://jira.iscs.com.cn/rest/api/2/user?username=huquanquan","name":"huquanquan","key":"huquanquan","emailAddress":"huquanquan@iscs.com.cn","avatarUrls":{"48x48":"http://jira.iscs.com.cn/secure/useravatar?ownerId=huquanquan&avatarId=10928","24x24":"http://jira.iscs.com.cn/secure/useravatar?size=small&ownerId=huquanquan&avatarId=10928","16x16":"http://jira.iscs.com.cn/secure/useravatar?size=xsmall&ownerId=huquanquan&avatarId=10928","32x32":"http://jira.iscs.com.cn/secure/useravatar?size=medium&ownerId=huquanquan&avatarId=10928"},"displayName":"胡劝劝","active":true,"timeZone":"PRC"},{"self":"http://jira.iscs.com.cn/rest/api/2/user?username=huyuan","name":"huyuan","key":"huyuan","emailAddress":"huyuan@iscs.com.cn","avatarUrls":{"48x48":"http://jira.iscs.com.cn/secure/useravatar?avatarId=10122","24x24":"http://jira.iscs.com.cn/secure/useravatar?size=small&avatarId=10122","16x16":"http://jira.iscs.com.cn/secure/useravatar?size=xsmall&avatarId=10122","32x32":"http://jira.iscs.com.cn/secure/useravatar?size=medium&avatarId=10122"},"displayName":"胡愿","active":true,"timeZone":"PRC"},{"self":"http://jira.iscs.com.cn/rest/api/2/user?username=jiangdeqi","name":"jiangdeqi","key":"jiangdeqi","emailAddress":"jiangdeqi@iscs.com.cn","avatarUrls":{"48x48":"http://jira.iscs.com.cn/secure/useravatar?ownerId=jiangdeqi&avatarId=10701","24x24":"http://jira.iscs.com.cn/secure/useravatar?size=small&ownerId=jiangdeqi&avatarId=10701","16x16":"http://jira.iscs.com.cn/secure/useravatar?size=xsmall&ownerId=jiangdeqi&avatarId=10701","32x32":"http://jira.iscs.com.cn/secure/useravatar?size=medium&ownerId=jiangdeqi&avatarId=10701"},"displayName":"姜德奇","active":true,"timeZone":"PRC"},{"self":"http://jira.iscs.com.cn/rest/api/2/user?username=jiangjun","name":"jiangjun","key":"jiangjun","emailAddress":"jiangjun@iscs.com.cn","avatarUrls":{"48x48":"http://jira.iscs.com.cn/secure/useravatar?avatarId=10122","24x24":"http://jira.iscs.com.cn/secure/useravatar?size=small&avatarId=10122","16x16":"http://jira.iscs.com.cn/secure/useravatar?size=xsmall&avatarId=10122","32x32":"http://jira.iscs.com.cn/secure/useravatar?size=medium&avatarId=10122"},"displayName":"姜俊","active":true,"timeZone":"PRC"},{"self":"http://jira.iscs.com.cn/rest/api/2/user?username=jinyao","name":"jinyao","key":"jinyao","emailAddress":"jinyao@iscs.com.cn","avatarUrls":{"48x48":"http://jira.iscs.com.cn/secure/useravatar?ownerId=jinyao&avatarId=10801","24x24":"http://jira.iscs.com.cn/secure/useravatar?size=small&ownerId=jinyao&avatarId=10801","16x16":"http://jira.iscs.com.cn/secure/useravatar?size=xsmall&ownerId=jinyao&avatarId=10801","32x32":"http://jira.iscs.com.cn/secure/useravatar?size=medium&ownerId=jinyao&avatarId=10801"},"displayName":"金垚","active":true,"timeZone":"PRC"},{"self":"http://jira.iscs.com.cn/rest/api/2/user?username=jinzefen","name":"jinzefen","key":"jinzefen","emailAddress":"jinzefen@iscs.com.cn","avatarUrls":{"48x48":"http://jira.iscs.com.cn/secure/useravatar?ownerId=jinzefen&avatarId=10934","24x24":"http://jira.iscs.com.cn/secure/useravatar?size=small&ownerId=jinzefen&avatarId=10934","16x16":"http://jira.iscs.com.cn/secure/useravatar?size=xsmall&ownerId=jinzefen&avatarId=10934","32x32":"http://jira.iscs.com.cn/secure/useravatar?size=medium&ownerId=jinzefen&avatarId=10934"},"displayName":"金泽芬","active":true,"timeZone":"PRC"},{"self":"http://jira.iscs.com.cn/rest/api/2/user?username=kanghongbin","name":"kanghongbin","key":"kanghongbin","emailAddress":"kanghongbin@iscs.com.cn","avatarUrls":{"48x48":"http://jira.iscs.com.cn/secure/useravatar?ownerId=kanghongbin&avatarId=10936","24x24":"http://jira.iscs.com.cn/secure/useravatar?size=small&ownerId=kanghongbin&avatarId=10936","16x16":"http://jira.iscs.com.cn/secure/useravatar?size=xsmall&ownerId=kanghongbin&avatarId=10936","32x32":"http://jira.iscs.com.cn/secure/useravatar?size=medium&ownerId=kanghongbin&avatarId=10936"},"displayName":"康泓斌","active":true,"timeZone":"PRC"},{"self":"http://jira.iscs.com.cn/rest/api/2/user?username=kevinzhongshuo","name":"kevinzhongshuo","key":"kevinzhongshuo","emailAddress":"zhongshuo@iscs.com.cn","avatarUrls":{"48x48":"http://jira.iscs.com.cn/secure/useravatar?avatarId=10337","24x24":"http://jira.iscs.com.cn/secure/useravatar?size=small&avatarId=10337","16x16":"http://jira.iscs.com.cn/secure/useravatar?size=xsmall&avatarId=10337","32x32":"http://jira.iscs.com.cn/secure/useravatar?size=medium&avatarId=10337"},"displayName":"钟硕","active":true,"timeZone":"PRC"}]}