{"self":"http://jira.iscs.com.cn/rest/api/2/group/member?includeInactiveUsers=false&maxResults=50&groupname=JIRA-DEV&startAt=0","nextPage":"http://jira.iscs.com.cn/rest/api/2/group/member?includeInactiveUsers=false&maxResults=50&groupname=JIRA-DEV&startAt=50","maxResults":50,"startAt":0,"total":76,"isLast":false,"values":[{"self":"http://jira.iscs.com.cn/rest/api/2/user?username=aiweiming","name":"aiweiming","key":"aiweiming","emailAddress":"aiweiming@iscs.com.cn","avatarUrls":{"48x48":"http://jira.iscs.com.cn/secure/useravatar?ownerId=aiweiming&avatarId=10908","24x24":"http://jira.iscs.com.cn/secure/useravatar?size=small&ownerId=aiweiming&avatarId=10908","16x16":"http://jira.iscs.com.cn/secure/useravatar?size=xsmall&ownerId=aiweiming&avatarId=10908","32x32":"http://jira.iscs.com.cn/secure/useravatar?size=medium&ownerId=aiweiming&avatarId=10908"},"displayName":"艾卫明","active":true,"timeZone":"PRC"},{"self":"http://jira.iscs.com.cn/rest/api/2/user?username=chenbing","name":"chenbing","key":"chenbing","emailAddress":"chenbing@iscs.com.cn","avatarUrls":{"48x48":"http://jira.iscs.com.cn/secure/useravatar?ownerId=chenbing&avatarId=10911","24x24":"http://jira.iscs.com.cn/secure/useravatar?size=small&ownerId=chenbing&avatarId=10911","16x16":"http://jira.iscs.com.cn/secure/useravatar?size=xsmall&ownerId=chenbing&avatarId=10911","32x32":"http://jira.iscs.com.cn/secure/useravatar?size=medium&ownerId=chenbing&avatarId=10911"},"displayName":"陈兵","active":true,"timeZone":"PRC"},{"self":"http://jira.iscs.com.cn/rest/api/2/user?username=chenchao","name":"chenchao","key":"chenchao","emailAddress":"","avatarUrls":{"48x48":"http://jira.iscs.com.cn/secure/useravatar?avatarId=10122","24x24":"http://jira.iscs.com.cn/secure/useravatar?size=small&avatarId=10122","16x16":"http://jira.iscs.com.cn/secure/useravatar?size=xsmall&avatarId=10122","32x32":"http://jira.iscs.com.cn/secure/useravatar?size=medium&avatarId=10122"},"displayName":"陈超","active":true,"timeZone":"PRC"},{"self":"http://jira.iscs.com.cn/rest/api/2/user?username=chengwei","name":"chengwei","key":"chengwei","emailAddress":"chengwei@iscs.com.cn","avatarUrls":{"48x48":"http://jira.iscs.com.cn/secure/useravatar?ownerId=chengwei&avatarId=10918","24x24":"http://jira.iscs.com.cn/secure/useravatar?size=small&ownerId=chengwei&avatarId=10918","16x16":"http://jira.iscs.com.cn/secure/useravatar?size=xsmall&ownerId=chengwei&avatarId=10918","32x32":"http://jira.iscs.com.cn/secure/useravatar?size=medium&ownerId=chengwei&avatarId=10918"},"displayName":"程伟","active":true,"timeZone":"PRC"},{"self":"http://jira.iscs.com.cn/rest/api/2/user?username=chengyuanchun","name":"chengyuanchun","key":"chengyuanchun","emailAddress":"chengyuanchun@iscs.com.cn","avatarUrls":{"48x48":"http://jira.iscs.com.cn/secure/useravatar?avatarId=10122","24x24":"http://jira.iscs.com.cn/secure/useravatar?size=small&avatarId=10122","16x16":"http://jira.iscs.com.cn/secure/useravatar?size=xsmall&avatarId=10122","32x32":"http://jira.iscs.com.cn/secure/useravatar?size=medium&avatarId=10122"},"displayName":"程元春","active":true,"timeZone":"PRC"},{"self":"http://jira.iscs.com.cn/rest/api/2/user?username=chenshengnan","name":"chenshengnan","key":"chenshengnan","emailAddress":"chenshengnan@iscs.com.cn","avatarUrls":{"48x48":"http://jira.iscs.com.cn/secure/useravatar?avatarId=10342","24x24":"http://jira.iscs.com.cn/secure/useravatar?size=small&avatarId=10342","16x16":"http://jira.iscs.com.cn/secure/useravatar?size=xsmall&avatarId=10342","32x32":"http://jira.iscs.com.cn/secure/useravatar?size=medium&avatarId=10342"},"displayName":"陈胜难","active":true,"timeZone":"PRC"},{"self":"http://jira.iscs.com.cn/rest/api/2/user?username=chudanfeng","name":"chudanfeng","key":"zhudanfeng","emailAddress":"chudanfeng@iscs.com.cn","avatarUrls":{"48x48":"http://jira.iscs.com.cn/secure/useravatar?avatarId=10337","24x24":"http://jira.iscs.com.cn/secure/useravatar?size=small&avatarId=10337","16x16":"http://jira.iscs.com.cn/secure/useravatar?size=xsmall&avatarId=10337","32x32":"http://jira.iscs.com.cn/secure/useravatar?size=medium&avatarId=10337"},"displayName":"褚丹凤","active":true,"timeZone":"PRC"},{"self":"http://jira.iscs.com.cn/rest/api/2/user?username=dengchao","name":"dengchao","key":"dengchao","emailAddress":"dengchao@iscs.com.cn","avatarUrls":{"48x48":"http://jira.iscs.com.cn/secure/useravatar?avatarId=10122","24x24":"http://jira.iscs.com.cn/secure/useravatar?size=small&avatarId=10122","16x16":"http://jira.iscs.com.cn/secure/useravatar?size=xsmall&avatarId=10122","32x32":"http://jira.iscs.com.cn/secure/useravatar?size=medium&avatarId=10122"},"displayName":"邓超","active":true,"timeZone":"PRC"},{"self":"http://jira.iscs.com.cn/rest/api/2/user?username=dongjie","name":"dongjie","key":"dongjie","emailAddress":"dongjie@iscs.com.cn","avatarUrls":{"48x48":"http://jira.iscs.com.cn/secure/useravatar?avatarId=10122","24x24":"http://jira.iscs.com.cn/secure/useravatar?size=small&avatarId=10122","16x16":"http://jira.iscs.com.cn/secure/useravatar?size=xsmall&avatarId=10122","32x32":"http://jira.iscs.com.cn/secure/useravatar?size=medium&avatarId=10122"},"displayName":"董杰","active":true,"timeZone":"PRC"},{"self":"http://jira.iscs.com.cn/rest/api/2/user?username=dongzhenzhen","name":"dongzhenzhen","key":"dongzhenzhen","emailAddress":"dongzhenzhen@iscs.com.cn","avatarUrls":{"48x48":"http://jira.iscs.com.cn/secure/useravatar?avatarId=10122","24x24":"http://jira.iscs.com.cn/secure/useravatar?size=small&avatarId=10122","16x16":"http://jira.iscs.com.cn/secure/useravatar?size=xsmall&avatarId=10122","32x32":"http://jira.iscs.com.cn/secure/useravatar?size=medium&avatarId=10122"},"displayName":"董真真","active":true,"timeZone":"PRC"},{"self":"http://jira.iscs.com.cn/rest/api/2/user?username=fenghui","name":"fenghui","key":"fenghui","emailAddress":"fenghui@iscs.com.cn","avatarUrls":{"48x48":"http://jira.iscs.com.cn/secure/useravatar?ownerId=fenghui&avatarId=10920","24x24":"http://jira.iscs.com.cn/secure/useravatar?size=small&ownerId=fenghui&avatarId=10920","16x16":"http://jira.iscs.com.cn/secure/useravatar?size=xsmall&ownerId=fenghui&avatarId=10920","32x32":"http://jira.iscs.com.cn/secure/useravatar?size=medium&ownerId=fenghui&avatarId=10920"},"displayName":"冯辉","active":true,"timeZone":"PRC"},{"self":"http://jira.iscs.com.cn/rest/api/2/user?username=gehongyuan","name":"gehongyuan","key":"gehongyuan","emailAddress":"gehongyuan@iscs.com.cn","avatarUrls":{"48x48":"http://jira.iscs.com.cn/secure/useravatar?ownerId=gehongyuan&avatarId=10922","24x24":"http://jira.iscs.com.cn/secure/useravatar?size=small&ownerId=gehongyuan&avatarId=10922","16x16":"http://jira.iscs.com.cn/secure/useravatar?size=xsmall&ownerId=gehongyuan&avatarId=10922","32x32":"http://jira.iscs.com.cn/secure/useravatar?size=medium&ownerId=gehongyuan&avatarId=10922"},"displayName":"革红元","active":true,"timeZone":"PRC"},{"self":"http://jira.iscs.com.cn/rest/api/2/user?username=guanjianjun","name":"guanjianjun","key":"guanjianjun","emailAddress":"guanjianjun@iscs.com.cn","avatarUrls":{"48x48":"http://jira.iscs.com.cn/secure/useravatar?ownerId=guanjianjun&avatarId=10924","24x24":"http://jira.iscs.com.cn/secure/useravatar?size=small&ownerId=guanjianjun&avatarId=10924","16x16":"http://jira.iscs.com.cn/secure/useravatar?size=xsmall&ownerId=guanjianjun&avatarId=10924","32x32":"http://jira.iscs.com.cn/secure/useravatar?size=medium&ownerId=guanjianjun&avatarId=10924"},"displayName":"管剑军","active":true,"timeZone":"PRC"},{"self":"http://jira.iscs.com.cn/rest/api/2/user?username=hanbeibei","name":"hanbeibei","key":"hanbeibei","emailAddress":"hanbeibei@iscs.com.cn","avatarUrls":{"48x48":"http://jira.iscs.com.cn/secure/useravatar?ownerId=hanbeibei&avatarId=11605","24x24":"http://jira.iscs.com.cn/secure/useravatar?size=small&ownerId=hanbeibei&avatarId=11605","16x16":"http://jira.iscs.com.cn/secure/useravatar?size=xsmall&ownerId=hanbeibei&avatarId=11605","32x32":"http://jira.iscs.com.cn/secure/useravatar?size=medium&ownerId=hanbeibei&avatarId=11605"},"displayName":"韩贝贝","active":true,"timeZone":"PRC"},{"self":"http://jira.iscs.com.cn/rest/api/2/user?username=handan","name":"handan","key":"handan","emailAddress":"handan@iscs.com.cn","avatarUrls":{"48x48":"http://jira.iscs.com.cn/secure/useravatar?ownerId=handan&avatarId=10927","24x24":"http://jira.iscs.com.cn/secure/useravatar?size=small&ownerId=handan&avatarId=10927","16x16":"http://jira.iscs.com.cn/secure/useravatar?size=xsmall&ownerId=handan&avatarId=10927","32x32":"http://jira.iscs.com.cn/secure/useravatar?size=medium&ownerId=handan&avatarId=10927"},"displayName":"韩丹","active":true,"timeZone":"PRC"},{"self":"http://jira.iscs.com.cn/rest/api/2/user?username=hexiaofei","name":"hexiaofei","key":"贺晓飞","emailAddress":"hexiaofei@iscs.com.cn","avatarUrls":{"48x48":"http://jira.iscs.com.cn/secure/useravatar?ownerId=%E8%B4%BA%E6%99%93%E9%A3%9E&avatarId=11800","24x24":"http://jira.iscs.com.cn/secure/useravatar?size=small&ownerId=%E8%B4%BA%E6%99%93%E9%A3%9E&avatarId=11800","16x16":"http://jira.iscs.com.cn/secure/useravatar?size=xsmall&ownerId=%E8%B4%BA%E6%99%93%E9%A3%9E&avatarId=11800","32x32":"http://jira.iscs.com.cn/secure/useravatar?size=medium&ownerId=%E8%B4%BA%E6%99%93%E9%A3%9E&avatarId=11800"},"displayName":"贺晓飞","active":true,"timeZone":"PRC"},{"self":"http://jira.iscs.com.cn/rest/api/2/user?username=houwenwu","name":"houwenwu","key":"houwenwu","emailAddress":"houwenwu@iscs.com.cn","avatarUrls":{"48x48":"http://jira.iscs.com.cn/secure/useravatar?avatarId=10122","24x24":"http://jira.iscs.com.cn/secure/useravatar?size=small&avatarId=10122","16x16":"http://jira.iscs.com.cn/secure/useravatar?size=xsmall&avatarId=10122","32x32":"http://jira.iscs.com.cn/secure/useravatar?size=medium&avatarId=10122"},"displayName":"侯文武","active":true,"timeZone":"PRC"},{"self":"http://jira.iscs.com.cn/rest/api/2/user?username=huangwenping","name":"huangwenping","key":"huangwenping","emailAddress":"huanwenping@iscs.com.cn","avatarUrls":{"48x48":"http://jira.iscs.com.cn/secure/useravatar?ownerId=huangwenping&avatarId=10929","24x24":"http://jira.iscs.com.cn/secure/useravatar?size=small&ownerId=huangwenping&avatarId=10929","16x16":"http://jira.iscs.com.cn/secure/useravatar?size=xsmall&ownerId=huangwenping&avatarId=10929","32x32":"http://jira.iscs.com.cn/secure/useravatar?size=medium&ownerId=huangwenping&avatarId=10929"},"displayName":"黄文平","active":true,"timeZone":"PRC"},{"self":"http://jira.iscs.com.cn/rest/api/2/user?username=huangxingxing","name":"huangxingxing","key":"huangxingxing","emailAddress":"huangxingxing@iscs.com.cn","avatarUrls":{"48x48":"http://jira.iscs.com.cn/secure/useravatar?avatarId=10122","24x24":"http://jira.iscs.com.cn/secure/useravatar?size=small&avatarId=10122","16x16":"http://jira.iscs.com.cn/secure/useravatar?size=xsmall&avatarId=10122","32x32":"http://jira.iscs.com.cn/secure/useravatar?size=medium&avatarId=10122"},"displayName":"黄星星","active":true,"timeZone":"PRC"},{"self":"http://jira.iscs.com.cn/rest/api/2/user?username=huangzhigang","name":"huangzhigang","key":"huangzhigang","emailAddress":"huanzhigang@iscs.com.cn","avatarUrls":{"48x48":"http://jira.iscs.com.cn/secure/useravatar?ownerId=huangzhigang&avatarId=10930","24x24":"http://jira.iscs.com.cn/secure/useravatar?size=small&ownerId=huangzhigang&avatarId=10930","16x16":"http://jira.iscs.com.cn/secure/useravatar?size=xsmall&ownerId=huangzhigang&avatarId=10930","32x32":"http://jira.iscs.com.cn/secure/useravatar?size=medium&ownerId=huangzhigang&avatarId=10930"},"displayName":"黄志钢","active":true,"timeZone":"PRC"},{"self":"http://jira.iscs.com.cn/rest/api/2/user?username=hulongyang","name":"hulongyang","key":"hulongyang","emailAddress":"hulongyang@iscs.com.cn","avatarUrls":{"48x48":"http://jira.iscs.com.cn/secure/useravatar?avatarId=10122","24x24":"http://jira.iscs.com.cn/secure/useravatar?size=small&avatarId=10122","16x16":"http://jira.iscs.com.cn/secure/useravatar?size=xsmall&avatarId=10122","32x32":"http://jira.iscs.com.cn/secure/useravatar?size=medium&avatarId=10122"},"displayName":"胡龙洋","active":true,"timeZone":"PRC"},{"self":"http://jira.iscs.com.cn/rest/api/2/user?username=huquanquan","name":"huquanquan","key":"huquanquan","emailAddress":"huquanquan@iscs.com.cn","avatarUrls":{"48x48":"http://jira.iscs.com.cn/secure/useravatar?ownerId=huquanquan&avatarId=10928","24x24":"http://jira.iscs.com.cn/secure/useravatar?size=small&ownerId=huquanquan&avatarId=10928","16x16":"http://jira.iscs.com.cn/secure/useravatar?size=xsmall&ownerId=huquanquan&avatarId=10928","32x32":"http://jira.iscs.com.cn/secure/useravatar?size=medium&ownerId=huquanquan&avatarId=10928"},"displayName":"胡劝劝","active":true,"timeZone":"PRC"},{"self":"http://jira.iscs.com.cn/rest/api/2/user?username=huyuan","name":"huyuan","key":"huyuan","emailAddress":"huyuan@iscs.com.cn","avatarUrls":{"48x48":"http://jira.iscs.com.cn/secure/useravatar?avatarId=10122","24x24":"http://jira.iscs.com.cn/secure/useravatar?size=small&avatarId=10122","16x16":"http://jira.iscs.com.cn/secure/useravatar?size=xsmall&avatarId=10122","32x32":"http://jira.iscs.com.cn/secure/useravatar?size=medium&avatarId=10122"},"displayName":"胡愿","active":true,"timeZone":"PRC"},{"self":"http://jira.iscs.com.cn/rest/api/2/user?username=jiangdeqi","name":"jiangdeqi","key":"jiangdeqi","emailAddress":"jiangdeqi@iscs.com.cn","avatarUrls":{"48x48":"http://jira.iscs.com.cn/secure/useravatar?ownerId=jiangdeqi&avatarId=10701","24x24":"http://jira.iscs.com.cn/secure/useravatar?size=small&ownerId=jiangdeqi&avatarId=10701","16x16":"http://jira.iscs.com.cn/secure/useravatar?size=xsmall&ownerId=jiangdeqi&avatarId=10701","32x32":"http://jira.iscs.com.cn/secure/useravatar?size=medium&ownerId=jiangdeqi&avatarId=10701"},"displayName":"姜德奇","active":true,"timeZone":"PRC"},{"self":"http://jira.iscs.com.cn/rest/api/2/user?username=jinyao","name":"jinyao","key":"jinyao","emailAddress":"jinyao@iscs.com.cn","avatarUrls":{"48x48":"http://jira.iscs.com.cn/secure/useravatar?ownerId=jinyao&avatarId=10801","24x24":"http://jira.iscs.com.cn/secure/useravatar?size=small&ownerId=jinyao&avatarId=10801","16x16":"http://jira.iscs.com.cn/secure/useravatar?size=xsmall&ownerId=jinyao&avatarId=10801","32x32":"http://jira.iscs.com.cn/secure/useravatar?size=medium&ownerId=jinyao&avatarId=10801"},"displayName":"金垚","active":true,"timeZone":"PRC"},{"self":"http://jira.iscs.com.cn/rest/api/2/user?username=jinzefen","name":"jinzefen","key":"jinzefen","emailAddress":"jinzefen@iscs.com.cn","avatarUrls":{"48x48":"http://jira.iscs.com.cn/secure/useravatar?ownerId=jinzefen&avatarId=10934","24x24":"http://jira.iscs.com.cn/secure/useravatar?size=small&ownerId=jinzefen&avatarId=10934","16x16":"http://jira.iscs.com.cn/secure/useravatar?size=xsmall&ownerId=jinzefen&avatarId=10934","32x32":"http://jira.iscs.com.cn/secure/useravatar?size=medium&ownerId=jinzefen&avatarId=10934"},"displayName":"金泽芬","active":true,"timeZone":"PRC"},{"self":"http://jira.iscs.com.cn/rest/api/2/user?username=lihu","name":"lihu","key":"lihu","emailAddress":"lihu@iscs.com.cn","avatarUrls":{"48x48":"http://jira.iscs.com.cn/secure/useravatar?ownerId=lihu&avatarId=10937","24x24":"http://jira.iscs.com.cn/secure/useravatar?size=small&ownerId=lihu&avatarId=10937","16x16":"http://jira.iscs.com.cn/secure/useravatar?size=xsmall&ownerId=lihu&avatarId=10937","32x32":"http://jira.iscs.com.cn/secure/useravatar?size=medium&ownerId=lihu&avatarId=10937"},"displayName":"黎虎","active":true,"timeZone":"PRC"},{"self":"http://jira.iscs.com.cn/rest/api/2/user?username=lilei","name":"lilei","key":"lilei","emailAddress":"lilei@iscs.com.cn","avatarUrls":{"48x48":"http://jira.iscs.com.cn/secure/useravatar?avatarId=10122","24x24":"http://jira.iscs.com.cn/secure/useravatar?size=small&avatarId=10122","16x16":"http://jira.iscs.com.cn/secure/useravatar?size=xsmall&avatarId=10122","32x32":"http://jira.iscs.com.cn/secure/useravatar?size=medium&avatarId=10122"},"displayName":"李磊","active":true,"timeZone":"PRC"},{"self":"http://jira.iscs.com.cn/rest/api/2/user?username=linhuaheng","name":"linhuaheng","key":"linhuaheng","emailAddress":"linhuaheng@iscs.com.cn","avatarUrls":{"48x48":"http://jira.iscs.com.cn/secure/useravatar?ownerId=linhuaheng&avatarId=10941","24x24":"http://jira.iscs.com.cn/secure/useravatar?size=small&ownerId=linhuaheng&avatarId=10941","16x16":"http://jira.iscs.com.cn/secure/useravatar?size=xsmall&ownerId=linhuaheng&avatarId=10941","32x32":"http://jira.iscs.com.cn/secure/useravatar?size=medium&ownerId=linhuaheng&avatarId=10941"},"displayName":"林华亨","active":true,"timeZone":"PRC"},{"self":"http://jira.iscs.com.cn/rest/api/2/user?username=liqiang","name":"liqiang","key":"liqiang","emailAddress":"","avatarUrls":{"48x48":"http://jira.iscs.com.cn/secure/useravatar?avatarId=10350","24x24":"http://jira.iscs.com.cn/secure/useravatar?size=small&avatarId=10350","16x16":"http://jira.iscs.com.cn/secure/useravatar?size=xsmall&avatarId=10350","32x32":"http://jira.iscs.com.cn/secure/useravatar?size=medium&avatarId=10350"},"displayName":"李强","active":true,"timeZone":"PRC"},{"self":"http://jira.iscs.com.cn/rest/api/2/user?username=liusheng","name":"liusheng","key":"liusheng","emailAddress":"liusheng@iscs.com.cn","avatarUrls":{"48x48":"http://jira.iscs.com.cn/secure/useravatar?ownerId=liusheng&avatarId=10943","24x24":"http://jira.iscs.com.cn/secure/useravatar?size=small&ownerId=liusheng&avatarId=10943","16x16":"http://jira.iscs.com.cn/secure/useravatar?size=xsmall&ownerId=liusheng&avatarId=10943","32x32":"http://jira.iscs.com.cn/secure/useravatar?size=medium&ownerId=liusheng&avatarId=10943"},"displayName":"刘盛","active":true,"timeZone":"PRC"},{"self":"http://jira.iscs.com.cn/rest/api/2/user?username=liuxin","name":"liuxin","key":"liuxin","emailAddress":"liuxin@iscs.com.cn","avatarUrls":{"48x48":"http://jira.iscs.com.cn/secure/useravatar?avatarId=10336","24x24":"http://jira.iscs.com.cn/secure/useravatar?size=small&avatarId=10336","16x16":"http://jira.iscs.com.cn/secure/useravatar?size=xsmall&avatarId=10336","32x32":"http://jira.iscs.com.cn/secure/useravatar?size=medium&avatarId=10336"},"displayName":"刘信","active":true,"timeZone":"PRC"},{"self":"http://jira.iscs.com.cn/rest/api/2/user?username=lvtongsheng","name":"lvtongsheng","key":"lvtongsheng","emailAddress":"lvtongsheng@iscs.com.cn","avatarUrls":{"48x48":"http://jira.iscs.com.cn/secure/useravatar?avatarId=10334","24x24":"http://jira.iscs.com.cn/secure/useravatar?size=small&avatarId=10334","16x16":"http://jira.iscs.com.cn/secure/useravatar?size=xsmall&avatarId=10334","32x32":"http://jira.iscs.com.cn/secure/useravatar?size=medium&avatarId=10334"},"displayName":"吕同生","active":true,"timeZone":"PRC"},{"self":"http://jira.iscs.com.cn/rest/api/2/user?username=matao","name":"matao","key":"matao","emailAddress":"matao@iscs.com.cn","avatarUrls":{"48x48":"http://jira.iscs.com.cn/secure/useravatar?avatarId=10122","24x24":"http://jira.iscs.com.cn/secure/useravatar?size=small&avatarId=10122","16x16":"http://jira.iscs.com.cn/secure/useravatar?size=xsmall&avatarId=10122","32x32":"http://jira.iscs.com.cn/secure/useravatar?size=medium&avatarId=10122"},"displayName":"马弢","active":true,"timeZone":"PRC"},{"self":"http://jira.iscs.com.cn/rest/api/2/user?username=nixiaoke","name":"nixiaoke","key":"nixiaoke","emailAddress":"nixiaoke@iscs.com.cn","avatarUrls":{"48x48":"http://jira.iscs.com.cn/secure/useravatar?ownerId=nixiaoke&avatarId=10981","24x24":"http://jira.iscs.com.cn/secure/useravatar?size=small&ownerId=nixiaoke&avatarId=10981","16x16":"http://jira.iscs.com.cn/secure/useravatar?size=xsmall&ownerId=nixiaoke&avatarId=10981","32x32":"http://jira.iscs.com.cn/secure/useravatar?size=medium&ownerId=nixiaoke&avatarId=10981"},"displayName":"倪晓克","active":true,"timeZone":"PRC"},{"self":"http://jira.iscs.com.cn/rest/api/2/user?username=shenyuanfei","name":"shenyuanfei","key":"shenyuanfei","emailAddress":"shenyuanfei@iscs.com.cn","avatarUrls":{"48x48":"http://jira.iscs.com.cn/secure/useravatar?ownerId=shenyuanfei&avatarId=10945","24x24":"http://jira.iscs.com.cn/secure/useravatar?size=small&ownerId=shenyuanfei&avatarId=10945","16x16":"http://jira.iscs.com.cn/secure/useravatar?size=xsmall&ownerId=shenyuanfei&avatarId=10945","32x32":"http://jira.iscs.com.cn/secure/useravatar?size=medium&ownerId=shenyuanfei&avatarId=10945"},"displayName":"沈远飞","active":true,"timeZone":"PRC"},{"self":"http://jira.iscs.com.cn/rest/api/2/user?username=sunchenhao","name":"sunchenhao","key":"sunchenhao","emailAddress":"sunchenhao@iscs.com.cn","avatarUrls":{"48x48":"http://jira.iscs.com.cn/secure/useravatar?ownerId=sunchenhao&avatarId=10947","24x24":"http://jira.iscs.com.cn/secure/useravatar?size=small&ownerId=sunchenhao&avatarId=10947","16x16":"http://jira.iscs.com.cn/secure/useravatar?size=xsmall&ownerId=sunchenhao&avatarId=10947","32x32":"http://jira.iscs.com.cn/secure/useravatar?size=medium&ownerId=sunchenhao&avatarId=10947"},"displayName":"孙宸豪","active":true,"timeZone":"PRC"},{"self":"http://jira.iscs.com.cn/rest/api/2/user?username=sunli","name":"sunli","key":"sunli","emailAddress":"sunli@iscs.com.cn","avatarUrls":{"48x48":"http://jira.iscs.com.cn/secure/useravatar?ownerId=sunli&avatarId=11700","24x24":"http://jira.iscs.com.cn/secure/useravatar?size=small&ownerId=sunli&avatarId=11700","16x16":"http://jira.iscs.com.cn/secure/useravatar?size=xsmall&ownerId=sunli&avatarId=11700","32x32":"http://jira.iscs.com.cn/secure/useravatar?size=medium&ownerId=sunli&avatarId=11700"},"displayName":"孙力","active":true,"timeZone":"PRC"},{"self":"http://jira.iscs.com.cn/rest/api/2/user?username=taojiefei","name":"taojiefei","key":"taojiefei","emailAddress":"taojiefei@iscs.com.cn","avatarUrls":{"48x48":"http://jira.iscs.com.cn/secure/useravatar?ownerId=taojiefei&avatarId=10979","24x24":"http://jira.iscs.com.cn/secure/useravatar?size=small&ownerId=taojiefei&avatarId=10979","16x16":"http://jira.iscs.com.cn/secure/useravatar?size=xsmall&ownerId=taojiefei&avatarId=10979","32x32":"http://jira.iscs.com.cn/secure/useravatar?size=medium&ownerId=taojiefei&avatarId=10979"},"displayName":"陶杰飞","active":true,"timeZone":"PRC"},{"self":"http://jira.iscs.com.cn/rest/api/2/user?username=wangshichang","name":"wangshichang","key":"wangshichang","emailAddress":"wangshichang@iscs.com.cn","avatarUrls":{"48x48":"http://jira.iscs.com.cn/secure/useravatar?avatarId=10122","24x24":"http://jira.iscs.com.cn/secure/useravatar?size=small&avatarId=10122","16x16":"http://jira.iscs.com.cn/secure/useravatar?size=xsmall&avatarId=10122","32x32":"http://jira.iscs.com.cn/secure/useravatar?size=medium&avatarId=10122"},"displayName":"王士昌","active":true,"timeZone":"PRC"},{"self":"http://jira.iscs.com.cn/rest/api/2/user?username=wangshisheng","name":"wangshisheng","key":"wangshisheng","emailAddress":"wangshisheng@iscs.com.cn","avatarUrls":{"48x48":"http://jira.iscs.com.cn/secure/useravatar?avatarId=10346","24x24":"http://jira.iscs.com.cn/secure/useravatar?size=small&avatarId=10346","16x16":"http://jira.iscs.com.cn/secure/useravatar?size=xsmall&avatarId=10346","32x32":"http://jira.iscs.com.cn/secure/useravatar?size=medium&avatarId=10346"},"displayName":"王石生","active":true,"timeZone":"PRC"},{"self":"http://jira.iscs.com.cn/rest/api/2/user?username=wangtao","name":"wangtao","key":"wangtao","emailAddress":"wangtao@iscs.com.cn","avatarUrls":{"48x48":"http://jira.iscs.com.cn/secure/useravatar?ownerId=wangtao&avatarId=11900","24x24":"http://jira.iscs.com.cn/secure/useravatar?size=small&ownerId=wangtao&avatarId=11900","16x16":"http://jira.iscs.com.cn/secure/useravatar?size=xsmall&ownerId=wangtao&avatarId=11900","32x32":"http://jira.iscs.com.cn/secure/useravatar?size=medium&ownerId=wangtao&avatarId=11900"},"displayName":"王涛","active":true,"timeZone":"PRC"},{"self":"http://jira.iscs.com.cn/rest/api/2/user?username=wangxiaodong","name":"wangxiaodong","key":"wangxiaodong","emailAddress":"wangxiaodong@iscs.com.cn","avatarUrls":{"48x48":"http://jira.iscs.com.cn/secure/useravatar?ownerId=wangxiaodong&avatarId=11000","24x24":"http://jira.iscs.com.cn/secure/useravatar?size=small&ownerId=wangxiaodong&avatarId=11000","16x16":"http://jira.iscs.com.cn/secure/useravatar?size=xsmall&ownerId=wangxiaodong&avatarId=11000","32x32":"http://jira.iscs.com.cn/secure/useravatar?size=medium&ownerId=wangxiaodong&avatarId=11000"},"displayName":"王小东","active":true,"timeZone":"PRC"},{"self":"http://jira.iscs.com.cn/rest/api/2/user?username=wangxu","name":"wangxu","key":"wangxu","emailAddress":"wangxu@iscs.com.cn","avatarUrls":{"48x48":"http://jira.iscs.com.cn/secure/useravatar?avatarId=10122","24x24":"http://jira.iscs.com.cn/secure/useravatar?size=small&avatarId=10122","16x16":"http://jira.iscs.com.cn/secure/useravatar?size=xsmall&avatarId=10122","32x32":"http://jira.iscs.com.cn/secure/useravatar?size=medium&avatarId=10122"},"displayName":"王旭","active":true,"timeZone":"PRC"},{"self":"http://jira.iscs.com.cn/rest/api/2/user?username=wangyafei","name":"wangyafei","key":"wangyafei","emailAddress":"wangyafei@iscs.com.cn","avatarUrls":{"48x48":"http://jira.iscs.com.cn/secure/useravatar?avatarId=10122","24x24":"http://jira.iscs.com.cn/secure/useravatar?size=small&avatarId=10122","16x16":"http://jira.iscs.com.cn/secure/useravatar?size=xsmall&avatarId=10122","32x32":"http://jira.iscs.com.cn/secure/useravatar?size=medium&avatarId=10122"},"displayName":"王亚飞","active":true,"timeZone":"PRC"},{"self":"http://jira.iscs.com.cn/rest/api/2/user?username=wangyingda","name":"wangyingda","key":"wangyingda","emailAddress":"wangyingda@iscs.com.cn","avatarUrls":{"48x48":"http://jira.iscs.com.cn/secure/useravatar?ownerId=wangyingda&avatarId=10980","24x24":"http://jira.iscs.com.cn/secure/useravatar?size=small&ownerId=wangyingda&avatarId=10980","16x16":"http://jira.iscs.com.cn/secure/useravatar?size=xsmall&ownerId=wangyingda&avatarId=10980","32x32":"http://jira.iscs.com.cn/secure/useravatar?size=medium&ownerId=wangyingda&avatarId=10980"},"displayName":"王英达","active":true,"timeZone":"PRC"},{"self":"http://jira.iscs.com.cn/rest/api/2/user?username=wangyinsheng","name":"wangyinsheng","key":"wangyinsheng","emailAddress":"wangyinsheng@iscs.com.cn","avatarUrls":{"48x48":"http://jira.iscs.com.cn/secure/useravatar?ownerId=wangyinsheng&avatarId=10953","24x24":"http://jira.iscs.com.cn/secure/useravatar?size=small&ownerId=wangyinsheng&avatarId=10953","16x16":"http://jira.iscs.com.cn/secure/useravatar?size=xsmall&ownerId=wangyinsheng&avatarId=10953","32x32":"http://jira.iscs.com.cn/secure/useravatar?size=medium&ownerId=wangyinsheng&avatarId=10953"},"displayName":"王寅升","active":true,"timeZone":"PRC"},{"self":"http://jira.iscs.com.cn/rest/api/2/user?username=wangzhigang","name":"wangzhigang","key":"wangzhigang","emailAddress":"wangzhigang@iscs.com.cn","avatarUrls":{"48x48":"http://jira.iscs.com.cn/secure/useravatar?ownerId=wangzhigang&avatarId=10800","24x24":"http://jira.iscs.com.cn/secure/useravatar?size=small&ownerId=wangzhigang&avatarId=10800","16x16":"http://jira.iscs.com.cn/secure/useravatar?size=xsmall&ownerId=wangzhigang&avatarId=10800","32x32":"http://jira.iscs.com.cn/secure/useravatar?size=medium&ownerId=wangzhigang&avatarId=10800"},"displayName":"汪志刚","active":true,"timeZone":"PRC"},{"self":"http://jira.iscs.com.cn/rest/api/2/user?username=weijingjing","name":"weijingjing","key":"weijingjing","emailAddress":"weijingjing@iscs.com.cn","avatarUrls":{"48x48":"http://jira.iscs.com.cn/secure/useravatar?avatarId=10349","24x24":"http://jira.iscs.com.cn/secure/useravatar?size=small&avatarId=10349","16x16":"http://jira.iscs.com.cn/secure/useravatar?size=xsmall&avatarId=10349","32x32":"http://jira.iscs.com.cn/secure/useravatar?size=medium&avatarId=10349"},"displayName":"魏睛睛","active":true,"timeZone":"PRC"},{"self":"http://jira.iscs.com.cn/rest/api/2/user?username=wenhe","name":"wenhe","key":"wenhe","emailAddress":"wenhe@iscs.com.cn","avatarUrls":{"48x48":"http://jira.iscs.com.cn/secure/useravatar?ownerId=wenhe&avatarId=10955","24x24":"http://jira.iscs.com.cn/secure/useravatar?size=small&ownerId=wenhe&avatarId=10955","16x16":"http://jira.iscs.com.cn/secure/useravatar?size=xsmall&ownerId=wenhe&avatarId=10955","32x32":"http://jira.iscs.com.cn/secure/useravatar?size=medium&ownerId=wenhe&avatarId=10955"},"displayName":"温和","active":true,"timeZone":"PRC"}]}